Project/verilog_code/viterbi.vcd
$date
	Thu Jun 12 02:31:32 2025
$end
$version
	Icarus Verilog
$end
$timescale
	1ps
$end
$scope module tb_viterbi $end
$var wire 16 ! path_flat [15:0] $end
$var wire 2 " path_4 [1:0] $end
$var wire 2 # path_3 [1:0] $end
$var wire 2 $ path_2 [1:0] $end
$var wire 2 % path_1 [1:0] $end
$var wire 2 & path_0 [1:0] $end
$var wire 1 ' done $end
$var reg 1 ( clk $end
$var reg 3 ) length [2:0] $end
$var reg 144 * logA_flat [143:0] $end
$var reg 144 + logB_flat [143:0] $end
$var reg 48 , logC_flat [47:0] $end
$var reg 2 - obs_in [1:0] $end
$var reg 1 . obs_valid $end
$var reg 1 / rst_n $end
$var reg 1 0 start $end
$var integer 32 1 obs_idx [31:0] $end
$scope module dut $end
$var wire 1 ( clk $end
$var wire 3 2 length [2:0] $end
$var wire 144 3 logA_flat [143:0] $end
$var wire 144 4 logB_flat [143:0] $end
$var wire 48 5 logC_flat [47:0] $end
$var wire 2 6 obs_in [1:0] $end
$var wire 1 . obs_valid $end
$var wire 1 / rst_n $end
$var wire 1 0 start $end
$var wire 16 7 logC_2 [15:0] $end
$var wire 16 8 logC_1 [15:0] $end
$var wire 16 9 logC_0 [15:0] $end
$var wire 16 : logB_state2_obs [15:0] $end
$var wire 16 ; logB_state1_obs [15:0] $end
$var wire 16 < logB_state0_obs [15:0] $end
$var wire 16 = logB_22 [15:0] $end
$var wire 16 > logB_21 [15:0] $end
$var wire 16 ? logB_20 [15:0] $end
$var wire 16 @ logB_12 [15:0] $end
$var wire 16 A logB_11 [15:0] $end
$var wire 16 B logB_10 [15:0] $end
$var wire 16 C logB_02 [15:0] $end
$var wire 16 D logB_01 [15:0] $end
$var wire 16 E logB_00 [15:0] $end
$var wire 16 F logA_22 [15:0] $end
$var wire 16 G logA_21 [15:0] $end
$var wire 16 H logA_20 [15:0] $end
$var wire 16 I logA_12 [15:0] $end
$var wire 16 J logA_11 [15:0] $end
$var wire 16 K logA_10 [15:0] $end
$var wire 16 L logA_02 [15:0] $end
$var wire 16 M logA_01 [15:0] $end
$var wire 16 N logA_00 [15:0] $end
$var reg 3 O back_t [2:0] $end
$var reg 2 P best_state [1:0] $end
$var reg 2 Q current_obs [1:0] $end
$var reg 2 R current_state [1:0] $end
$var reg 16 S delta_curr_0 [15:0] $end
$var reg 16 T delta_curr_1 [15:0] $end
$var reg 16 U delta_curr_2 [15:0] $end
$var reg 16 V delta_next_0 [15:0] $end
$var reg 16 W delta_next_1 [15:0] $end
$var reg 16 X delta_next_2 [15:0] $end
$var reg 1 ' done $end
$var reg 1 Y obs_ready $end
$var reg 16 Z path_flat [15:0] $end
$var reg 2 [ prev_state [1:0] $end
$var reg 3 \ seq_length [2:0] $end
$var reg 3 ] state [2:0] $end
$var reg 3 ^ t [2:0] $end
$var reg 2 _ temp_idx_0 [1:0] $end
$var reg 2 ` temp_idx_1 [1:0] $end
$var reg 2 a temp_idx_2 [1:0] $end
$var reg 16 b temp_val_0 [15:0] $end
$var reg 16 c temp_val_1 [15:0] $end
$var reg 16 d temp_val_2 [15:0] $end
$var integer 32 e i [31:0] $end
$var integer 32 f j [31:0] $end
$upscope $end
$upscope $end
$enddefinitions $end
#0
$dumpvars
b1000 f
b11 e
bx d
bx c
bx b
bx a
bx `
bx _
b0 ^
b0 ]
b0 \
b0 [
b0 Z
0Y
b0 X
b0 W
b0 V
b0 U
b0 T
b0 S
b0 R
b0 Q
bx P
b0 O
b1111111111110110 N
b1111111111001110 M
b1111111111001110 L
b1111111111001110 K
b1111111111110110 J
b1111111111001110 I
b1111111111001110 H
b1111111111001110 G
b1111111111110110 F
b1111111111001110 E
b1111111111001110 D
b1111111111111011 C
b1111111111001110 B
b1111111111111011 A
b1111111111001110 @
b1111111111111011 ?
b1111111111001110 >
b1111111111001110 =
b1111111111001110 <
b1111111111001110 ;
b1111111111111011 :
b1111111111111011 9
b1111111111001110 8
b1111111111001110 7
b0 6
b111111111100111011111111110011101111111111111011 5
b111111111100111011111111110011101111111111111011111111111100111011111111111110111111111111001110111111111111101111111111110011101111111111001110 4
b111111111111011011111111110011101111111111001110111111111100111011111111111101101111111111001110111111111100111011111111110011101111111111110110 3
b101 2
bx 1
00
0/
0.
b0 -
b111111111100111011111111110011101111111111111011 ,
b111111111100111011111111110011101111111111111011111111111100111011111111111110111111111111001110111111111111101111111111110011101111111111001110 +
b111111111111011011111111110011101111111111001110111111111100111011111111111101101111111111001110111111111100111011111111110011101111111111110110 *
b101 )
0(
0'
b0 &
b0 %
b0 $
b0 #
b0 "
b0 !
$end
#5000
b1000 f
b11 e
1(
#10000
0(
#15000
b1000 f
b11 e
1(
#20000
0(
1/
#25000
1(
#30000
0(
#35000
1(
#40000
0(
10
#45000
00
1(
#50000
0(
#55000
1(
#60000
0(
#65000
1(
#70000
0(
#75000
1.
b1 1
1(
#80000
0(
#85000
0.
1(
#90000
0(
#95000
1.
b1 -
b1 6
b10 1
1(
#100000
0(
#105000
0.
1(
#110000
0(
#115000
1.
b11 1
1(
#120000
0(
#125000
0.
1(
#130000
0(
#135000
1.
b10 -
b10 6
b100 1
1(
#140000
0(
#145000
0.
1(
#150000
0(
#155000
b101 1
1(
